create table CHIPPINSUPERAPP.CHIPPINILETISIMLOG
(
  iletisim_id            NUMBER(20) not null,
  islem_tarihi           DATE not null,
  sira_no                NUMBER(5) not null,
  iletisim_adres_tip     NUMBER(2) not null,
  iletisim_tip_deger     VARCHAR2(200) not null,
  iys_marka_kodu         VARCHAR2(32) not null,
  iletisim_izin_durum    NUMBER(1) not null,
  iys_alici_tip          NUMBER(2) not null,
  ad                     VARCHAR2(50),
  soyad                  VARCHAR2(50),
  etk_izin_form_id       VARCHAR2(255),
  etk_versiyon_id        NUMBER,
  etk_versiyon_no        NUMBER(5),
  ortak_izin_mi          NUMBER(1),
  email_dogrulandimi     NUMBER(1),
  email_dogrulama_tarihi DATE,
  isyeri_kod             NUMBER(12) not null,
  kanal_kod              NUMBER(10) not null,
  ilk_izin_isyeri_kod    NUMBER(12),
  ilk_izin_kanal_kod     NUMBER(5),
  ilk_izin_tarihi        DATE,
  ilk_yasakli_isyeri_kod NUMBER(12),
  ilk_yasakli_kanal_kod  NUMBER(5),
  ilk_yasaklilik_tarihi  DATE,
  islem_id               NUMBER(25) not null,
  islem_ilk_kayit_tarihi DATE,
  son_guncelleme_tarihi  DATE not null,
  ws_seq                 NUMBER
)
tablespace VERDEDATA
  pctfree 10
  pctused 40
  initrans 1
  maxtrans 255
  storage
  (
    initial 64K
    next 1M
    minextents 1
    maxextents unlimited
  );
alter table CHIPPINSUPERAPP.CHIPPINILETISIMLOG
  add constraint CHIPPINILETISIMLOG_PK primary key (ILETISIM_ID, ISLEM_TARIHI, SIRA_NO)
  using index 
  tablespace VERDEDATA
  pctfree 10
  initrans 2
  maxtrans 255
  storage
  (
    initial 64K
    next 1M
    minextents 1
    maxextents unlimited
  );

