create table CHIPPINSUPERAPP.CHIPPINILETISIM
(
  iletisim_id            NUMBER(20) not null,
  iletisim_adres_tip     NUMBER(2) not null,
  iletisim_tip_deger     VARCHAR2(200) not null,
  iys_marka_kodu         VARCHAR2(32) not null,
  iletisim_izin_durum    NUMBER(1) not null,
  iys_alici_tip          NUMBER(2) not null,
  ad                     VARCHAR2(50),
  soyad                  VARCHAR2(50),
  etk_izin_form_id       VARCHAR2(255),
  etk_versiyon_id        NUMBER,
  etk_versiyon_no        NUMBER(5),
  ortak_izin_mi          NUMBER(1),
  email_dogrulandimi     NUMBER(1),
  email_dogrulama_tarihi DATE,
  isyeri_kod             NUMBER(12) not null,
  kanal_kod              NUMBER(10) not null,
  ilk_izin_isyeri_kod    NUMBER(12),
  ilk_izin_kanal_kod     NUMBER(5),
  ilk_izin_tarihi        DATE,
  ilk_yasakli_isyeri_kod NUMBER(12),
  ilk_yasakli_kanal_kod  NUMBER(5),
  ilk_yasaklilik_tarihi  DATE,
  islem_id               NUMBER(25) not null,
  islem_ilk_kayit_tarihi DATE not null,
  son_guncelleme_tarihi  DATE not null,
  ws_seq                 NUMBER
)
tablespace VERDEDATA
  pctfree 10
  pctused 40
  initrans 1
  maxtrans 255
  storage
  (
    initial 64K
    next 1M
    minextents 1
    maxextents unlimited
  );
comment on column CHIPPINSUPERAPP.CHIPPINILETISIM.iletisim_adres_tip
  is '1: cep tel SMS ; 2-cep tel ARAMA ; 3:Email';
comment on column CHIPPINSUPERAPP.CHIPPINILETISIM.iletisim_tip_deger
  is '1 ve 2 ise cep_no, 3 ise email';
comment on column CHIPPINSUPERAPP.CHIPPINILETISIM.iletisim_izin_durum
  is '1: izinli 0:yasakli';
comment on column CHIPPINSUPERAPP.CHIPPINILETISIM.iys_alici_tip
  is '1: Bireysel, 2: Tacir';
comment on column CHIPPINSUPERAPP.CHIPPINILETISIM.etk_versiyon_no
  is 'KVK versiyonu ile ayni tablodan geliyor';
comment on column CHIPPINSUPERAPP.CHIPPINILETISIM.email_dogrulandimi
  is '1 ise Evet';
comment on column CHIPPINSUPERAPP.CHIPPINILETISIM.ilk_izin_isyeri_kod
  is 'izinliden yasakliya gecerse izinli tarihleri silinecek, tam tersi de ayni sekilde';
comment on column CHIPPINSUPERAPP.CHIPPINILETISIM.islem_id
  is 'diger tablolarla iliski kurulacak ID';
create index CHIPPINSUPERAPP.IDX_CHILETISIM_TIP_DEGER on CHIPPINSUPERAPP.CHIPPINILETISIM (ILETISIM_TIP_DEGER)
  tablespace VERDEDATA
  pctfree 10
  initrans 2
  maxtrans 255
  storage
  (
    initial 64K
    next 1M
    minextents 1
    maxextents unlimited
  );
create unique index CHIPPINSUPERAPP.UNQNDX_CHIPPINILETISIM on CHIPPINSUPERAPP.CHIPPINILETISIM (ILETISIM_ADRES_TIP, ILETISIM_TIP_DEGER, IYS_MARKA_KODU, IYS_ALICI_TIP)
  tablespace VERDEDATA
  pctfree 10
  initrans 2
  maxtrans 255
  storage
  (
    initial 64K
    next 1M
    minextents 1
    maxextents unlimited
  );
alter table CHIPPINSUPERAPP.CHIPPINILETISIM
  add constraint CHIPPINILETISIM_PK primary key (ILETISIM_ID)
  using index 
  tablespace VERDEDATA
  pctfree 10
  initrans 2
  maxtrans 255
  storage
  (
    initial 64K
    next 1M
    minextents 1
    maxextents unlimited
  );

