create table CHIPPINSUPERAPP.IYSPULLBILGI
(
  iyspull_id    NUMBER,
  iys_kurum_kod VARCHAR2(32),
  iys_marka_kod VARCHAR2(32),
  link          VARCHAR2(4000),
  cevap         CLOB,
  tarih         DATE
)
tablespace VERDEDATA
  pctfree 10
  pctused 40
  initrans 1
  maxtrans 255;

