create table CHIPPINSUPERAPP.KANALGRUPTANIMLOG
(
  kanal_grup_kod   NUMBER(10),
  kanal_grup_tanim VARCHAR2(100),
  log_id           NUMBER,
  terminal         VARCHAR2(200),
  terminal_ip      VARCHAR2(200),
  log_user         VARCHAR2(200),
  log_date         DATE,
  log_action       VARCHAR2(15),
  log_affected     VARCHAR2(4000),
  log_sqlerrm      VARCHAR2(4000)
)
tablespace VERDEDATA
  pctfree 10
  pctused 40
  initrans 1
  maxtrans 255;

