create table CHIPPINSUPERAPP.TUKETICICHIPPINCOCUKLOG
(
  tuketici_id            NUMBER(20) not null,
  islem_tarihi           DATE not null,
  islem_tipi             CHAR(1) not null,
  islem_sira_no          NUMBER(5) not null,
  cocuk_sira_no          NUMBER not null,
  cocuk_dogum_yili       VARCHAR2(32) not null,
  islem_id               NUMBER(25) not null,
  islem_ilk_kayit_tarihi DATE not null,
  son_guncelleme_tarihi  DATE not null
)
tablespace VERDEDATA
  pctfree 10
  pctused 40
  initrans 1
  maxtrans 255
  storage
  (
    initial 64K
    next 1M
    minextents 1
    maxextents unlimited
  );
comment on column CHIPPINSUPERAPP.TUKETICICHIPPINCOCUKLOG.islem_tipi
  is '1:Update delete2 update insert 3-insert ';
alter table CHIPPINSUPERAPP.TUKETICICHIPPINCOCUKLOG
  add constraint TUKETICICHIPPINCOCUKLOG_PK primary key (TUKETICI_ID, ISLEM_TARIHI, ISLEM_TIPI, ISLEM_SIRA_NO, COCUK_SIRA_NO)
  using index 
  tablespace VERDEDATA
  pctfree 10
  initrans 2
  maxtrans 255
  storage
  (
    initial 64K
    next 1M
    minextents 1
    maxextents unlimited
  );

