create table CHIPPINSUPERAPP.WEBSERVISYETKI
(
  isyeri_kod         NUMBER(10) not null,
  yetkili_kod        NUMBER(20) not null,
  ws_kod             NUMBER(10) not null,
  kanal_kod          NUMBER(10) not null,
  islem_kayit_tarihi DATE not null
)
tablespace VERDEDATA
  pctfree 10
  pctused 40
  initrans 1
  maxtrans 255
  storage
  (
    initial 64K
    next 1M
    minextents 1
    maxextents unlimited
  );
alter table CHIPPINSUPERAPP.WEBSERVISYETKI
  add constraint WEBSERVISYETKI_PK primary key (ISYERI_KOD, YETKILI_KOD, WS_KOD)
  using index 
  tablespace VERDEDATA
  pctfree 10
  initrans 2
  maxtrans 255
  storage
  (
    initial 64K
    next 1M
    minextents 1
    maxextents unlimited
  );

