create table CHIPPINSUPERAPP.WSYETKILILOG
(
  yetkili_kod        NUMBER(20),
  yetkili_adi        VARCHAR2(100),
  islem_kayit_tarihi DATE,
  log_id             NUMBER,
  terminal           VARCHAR2(200),
  terminal_ip        VARCHAR2(200),
  log_user           VARCHAR2(200),
  log_date           DATE,
  log_action         VARCHAR2(15),
  log_affected       VARCHAR2(4000),
  log_sqlerrm        VARCHAR2(4000)
)
tablespace VERDEDATA
  pctfree 10
  pctused 40
  initrans 1
  maxtrans 255
  storage
  (
    initial 64K
    next 1M
    minextents 1
    maxextents unlimited
  );

